[
    {
        "name": "Legacy",
        "apps": [
            {
                "name": "Tracfone",
                "servers": [
                    {
                        "name": "dp-web1",
                        "datacenter": "mia",
                        "user": "weblogic",
                        "build_file": "/build.jsp",
                        "protocol": "http",
                        "port": "7001"
                    },
                    {
                        "name": "ds-web1",
                        "datacenter": "atl",
                        "user": "weblogic",
                        "build_file": "/build.jsp",
                        "protocol": "http",
                        "port": "7001"
                    }
                ]
            },
            {
                "name": "Telcel",
                "build_file": "http://dp-svn:9999/yulien/telcel.json"
            },
            {
                "name": "Net10ENG",
                "servers": []
            },
            {
                "name": "NET10SPA",
                "build_file": "http://dp-svn:9999/yulien/n10s.txt",
                "lines": [2,4]
            },
            {
                "name": "UDP",
                "servers": [
                    {
                        "name": "ds-carrier1",
                        "datacenter": "atl",
                        "user": "weblogic",
                        "build_file": "/home/intergate/intergate103/tmobile/tmobile_2/build.txt",
                        "protocol": "ssh",
                        "lines": [3]
                    },
                    {
                        "name": "dp-carrier1",
                        "datacenter": "mia",
                        "user": "weblogic",
                        "build_file": "/home/intergate/intergate103/tmobile/tmobile_2/build.txt",
                        "protocol": "ssh",
                        "lines": [2]
                    }
                ]
            }
        ]
    },
    {
        "name": "CBO/TAS/BRM",
        "apps": [
            {
                "name": "CBO",
                "build_file": "http://dp-svn:9999/yulien/cbo.json"
            },
            {
                "name": "TAS",
                "build_file": "http://dp-svn:9999/yulien/tas.json",
                "servers": []
            },
            {
                "name": "BRM",
                "servers": [
                    {
                        "name": "dp-svn",
                        "datacenter": "mia",
                        "build_file": "/home/weblogic/yulien/brm_line.js",
                        "protocol": "ssh",
                        "user": "weblogic",
                        "lines": [1]
                    },
                    {
                        "name": "dp-svn",
                        "datacenter": "atl",
                        "build_file": "/yulien/brm-atl-1.json",
                        "port": 9999
                    }
                ]
            }
        ]
    }
]